{
    "images": {
        "color": {
            "downsample": {
                "trigger-dpi": 450,
                "target-dpi": 300
            },
            "recompress": {
                "type": "jpeg2000",
                "quality": "high"
            }
        },
        "grayscale": {
            "downsample": {
                "trigger-dpi": 450,
                "target-dpi": 300
            },
            "recompress": {
                "type": "jpeg2000",
                "quality": "high"
            }
        },
        "monochrome": {
            "downsample": {
                "trigger-dpi": 600,
                "target-dpi": 450
            },
            "recompress": {
                "type": "jbig2",
                "quality": "high"
            }
        },
        "optimize-images-only-if-reduction-in-size": "on",
        "consolidate-duplicate-image-and-forms": "on",
        "down-convert-16-to-8-bpc-images": "on"
    },
    "fonts": {
        "subset-embedded-fonts": "on",
        "consolidate-duplicate-fonts": "on",
        "unembed-standard-14-fonts": "off",
        "resubset-subset-fonts": "on",
        "remove-unused-fonts": "on"
    },
    "objects": {
        "discard-javascript-actions": "on",
        "discard-alternate-images": "on",
        "discard-thumbnails": "on",
        "discard-document-tags": "off",
        "discard-bookmarks": "off",
        "discard-output-intent": "off"
    },
    "userdata": {
        "discard-comments-forms-multimedia": "off",
        "discard-xmp-metadata-padding": "off",
        "discard-document-information-and-metadata": "off",
        "discard-file-attachments": "off",
        "discard-private-data": "off",
        "discard-hidden-layer-content": "off"
    },
    "cleanup": {
        "compression": "compress-entire-file",
        "flate-encode-uncompressed-streams": "on",
        "convert-lzw-to-flate": "on",
        "optimize-page-content": "on",
        "optimize-for-fast-web-view": "on"
    },
    "general": {
        "write-output-even-if-increase-in-size": "on",
        "preserve-version": "off"
    },
    "color-conversion": {
        "enabled": "off",
        "color-convert-action": "convert",
        "convert-intent": "profile-intent",
        "convert-profile": "acrobat9-cmyk"
    },
    "pdfx-conversion": {
        "enabled": "on",
        "type": "4"
    }
}